{
  "page": 1,
  "per_page": 15,
  "photos": [
    {
      "id": 1181789,
      "width": 4236,
      "height": 2824,
      "url": "https://www.pexels.com/photo/beatles-vinyls-1181789/",
      "photographer": "Mike",
      "photographer_url": "https://www.pexels.com/@mike-468229",
      "photographer_id": 468229,
      "avg_color": "#89838B",
      "src": {
        "original": "https://images.pexels.com/photos/1181789/pexels-photo-1181789.jpeg",
        "large2x": "https://images.pexels.com/photos/1181789/pexels-photo-1181789.jpeg?auto=compress&cs=tinysrgb&dpr=2&h=650&w=940",
        "large": "https://images.pexels.com/photos/1181789/pexels-photo-1181789.jpeg?auto=compress&cs=tinysrgb&h=650&w=940",
        "medium": "https://images.pexels.com/photos/1181789/pexels-photo-1181789.jpeg?auto=compress&cs=tinysrgb&h=350",
        "small": "https://images.pexels.com/photos/1181789/pexels-photo-1181789.jpeg?auto=compress&cs=tinysrgb&h=130",
        "portrait": "https://images.pexels.com/photos/1181789/pexels-photo-1181789.jpeg?auto=compress&cs=tinysrgb&fit=crop&h=1200&w=800",
        "landscape": "https://images.pexels.com/photos/1181789/pexels-photo-1181789.jpeg?auto=compress&cs=tinysrgb&fit=crop&h=627&w=1200",
        "tiny": "https://images.pexels.com/photos/1181789/pexels-photo-1181789.jpeg?auto=compress&cs=tinysrgb&dpr=1&fit=crop&h=200&w=280"
      },
      "liked": false,
      "alt": "Beatles Vinyls"
    },
    {
      "id": 6627233,
      "width": 4480,
      "height": 6720,
      "url": "https://www.pexels.com/photo/a-close-up-shot-of-a-person-touching-a-vintage-collection-6627233/",
      "photographer": "KoolShooters",
      "photographer_url": "https://www.pexels.com/@koolshooters",
      "photographer_id": 3798027,
      "avg_color": "#4B3627",
      "src": {
        "original": "https://images.pexels.com/photos/6627233/pexels-photo-6627233.jpeg",
        "large2x": "https://images.pexels.com/photos/6627233/pexels-photo-6627233.jpeg?auto=compress&cs=tinysrgb&dpr=2&h=650&w=940",
        "large": "https://images.pexels.com/photos/6627233/pexels-photo-6627233.jpeg?auto=compress&cs=tinysrgb&h=650&w=940",
        "medium": "https://images.pexels.com/photos/6627233/pexels-photo-6627233.jpeg?auto=compress&cs=tinysrgb&h=350",
        "small": "https://images.pexels.com/photos/6627233/pexels-photo-6627233.jpeg?auto=compress&cs=tinysrgb&h=130",
        "portrait": "https://images.pexels.com/photos/6627233/pexels-photo-6627233.jpeg?auto=compress&cs=tinysrgb&fit=crop&h=1200&w=800",
        "landscape": "https://images.pexels.com/photos/6627233/pexels-photo-6627233.jpeg?auto=compress&cs=tinysrgb&fit=crop&h=627&w=1200",
        "tiny": "https://images.pexels.com/photos/6627233/pexels-photo-6627233.jpeg?auto=compress&cs=tinysrgb&dpr=1&fit=crop&h=200&w=280"
      },
      "liked": false,
      "alt": "\r\nA Close-Up Shot of a Person Touching a Vintage Collection "
    },
    {
      "id": 19588319,
      "width": 5181,
      "height": 3872,
      "url": "https://www.pexels.com/photo/the-beatles-statue-on-a-street-in-liverpool-in-black-and-white-19588319/",
      "photographer": "William Warby",
      "photographer_url": "https://www.pexels.com/@wwarby",
      "photographer_id": 836552064,
      "avg_color": "#707070",
      "src": {
        "original": "https://images.pexels.com/photos/19588319/pexels-photo-19588319.jpeg",
        "large2x": "https://images.pexels.com/photos/19588319/pexels-photo-19588319.jpeg?auto=compress&cs=tinysrgb&dpr=2&h=650&w=940",
        "large": "https://images.pexels.com/photos/19588319/pexels-photo-19588319.jpeg?auto=compress&cs=tinysrgb&h=650&w=940",
        "medium": "https://images.pexels.com/photos/19588319/pexels-photo-19588319.jpeg?auto=compress&cs=tinysrgb&h=350",
        "small": "https://images.pexels.com/photos/19588319/pexels-photo-19588319.jpeg?auto=compress&cs=tinysrgb&h=130",
        "portrait": "https://images.pexels.com/photos/19588319/pexels-photo-19588319.jpeg?auto=compress&cs=tinysrgb&fit=crop&h=1200&w=800",
        "landscape": "https://images.pexels.com/photos/19588319/pexels-photo-19588319.jpeg?auto=compress&cs=tinysrgb&fit=crop&h=627&w=1200",
        "tiny": "https://images.pexels.com/photos/19588319/pexels-photo-19588319.jpeg?auto=compress&cs=tinysrgb&dpr=1&fit=crop&h=200&w=280"
      },
      "liked": false,
      "alt": "The Beatles Statue on a Street in Liverpool in Black and White "
    },
    {
      "id": 13516642,
      "width": 6000,
      "height": 4000,
      "url": "https://www.pexels.com/photo/the-beatles-monument-in-liverpool-13516642/",
      "photographer": "Mike Bird",
      "photographer_url": "https://www.pexels.com/@mikebirdy",
      "photographer_id": 20649,
      "avg_color": "#60625F",
      "src": {
        "original": "https://images.pexels.com/photos/13516642/pexels-photo-13516642.jpeg",
        "large2x": "https://images.pexels.com/photos/13516642/pexels-photo-13516642.jpeg?auto=compress&cs=tinysrgb&dpr=2&h=650&w=940",
        "large": "https://images.pexels.com/photos/13516642/pexels-photo-13516642.jpeg?auto=compress&cs=tinysrgb&h=650&w=940",
        "medium": "https://images.pexels.com/photos/13516642/pexels-photo-13516642.jpeg?auto=compress&cs=tinysrgb&h=350",
        "small": "https://images.pexels.com/photos/13516642/pexels-photo-13516642.jpeg?auto=compress&cs=tinysrgb&h=130",
        "portrait": "https://images.pexels.com/photos/13516642/pexels-photo-13516642.jpeg?auto=compress&cs=tinysrgb&fit=crop&h=1200&w=800",
        "landscape": "https://images.pexels.com/photos/13516642/pexels-photo-13516642.jpeg?auto=compress&cs=tinysrgb&fit=crop&h=627&w=1200",
        "tiny": "https://images.pexels.com/photos/13516642/pexels-photo-13516642.jpeg?auto=compress&cs=tinysrgb&dpr=1&fit=crop&h=200&w=280"
      },
      "liked": false,
      "alt": "The Beatles Monument in Liverpool "
    },
    {
      "id": 15530462,
      "width": 2448,
      "height": 3264,
      "url": "https://www.pexels.com/photo/sign-saying-let-it-be-15530462/",
      "photographer": "Tanuj Matta",
      "photographer_url": "https://www.pexels.com/@tanuj-matta-2125119",
      "photographer_id": 2125119,
      "avg_color": "#918C86",
      "src": {
        "original": "https://images.pexels.com/photos/15530462/pexels-photo-15530462.jpeg",
        "large2x": "https://images.pexels.com/photos/15530462/pexels-photo-15530462.jpeg?auto=compress&cs=tinysrgb&dpr=2&h=650&w=940",
        "large": "https://images.pexels.com/photos/15530462/pexels-photo-15530462.jpeg?auto=compress&cs=tinysrgb&h=650&w=940",
        "medium": "https://images.pexels.com/photos/15530462/pexels-photo-15530462.jpeg?auto=compress&cs=tinysrgb&h=350",
        "small": "https://images.pexels.com/photos/15530462/pexels-photo-15530462.jpeg?auto=compress&cs=tinysrgb&h=130",
        "portrait": "https://images.pexels.com/photos/15530462/pexels-photo-15530462.jpeg?auto=compress&cs=tinysrgb&fit=crop&h=1200&w=800",
        "landscape": "https://images.pexels.com/photos/15530462/pexels-photo-15530462.jpeg?auto=compress&cs=tinysrgb&fit=crop&h=627&w=1200",
        "tiny": "https://images.pexels.com/photos/15530462/pexels-photo-15530462.jpeg?auto=compress&cs=tinysrgb&dpr=1&fit=crop&h=200&w=280"
      },
      "liked": false,
      "alt": "Sign Saying Let It Be"
    },
    {
      "id": 19760454,
      "width": 3472,
      "height": 4640,
      "url": "https://www.pexels.com/photo/pictures-of-the-beatles-in-cafe-19760454/",
      "photographer": "Milica Dukić",
      "photographer_url": "https://www.pexels.com/@milica-dukic-404395131",
      "photographer_id": 404395131,
      "avg_color": "#643B1B",
      "src": {
        "original": "https://images.pexels.com/photos/19760454/pexels-photo-19760454.jpeg",
        "large2x": "https://images.pexels.com/photos/19760454/pexels-photo-19760454.jpeg?auto=compress&cs=tinysrgb&dpr=2&h=650&w=940",
        "large": "https://images.pexels.com/photos/19760454/pexels-photo-19760454.jpeg?auto=compress&cs=tinysrgb&h=650&w=940",
        "medium": "https://images.pexels.com/photos/19760454/pexels-photo-19760454.jpeg?auto=compress&cs=tinysrgb&h=350",
        "small": "https://images.pexels.com/photos/19760454/pexels-photo-19760454.jpeg?auto=compress&cs=tinysrgb&h=130",
        "portrait": "https://images.pexels.com/photos/19760454/pexels-photo-19760454.jpeg?auto=compress&cs=tinysrgb&fit=crop&h=1200&w=800",
        "landscape": "https://images.pexels.com/photos/19760454/pexels-photo-19760454.jpeg?auto=compress&cs=tinysrgb&fit=crop&h=627&w=1200",
        "tiny": "https://images.pexels.com/photos/19760454/pexels-photo-19760454.jpeg?auto=compress&cs=tinysrgb&dpr=1&fit=crop&h=200&w=280"
      },
      "liked": false,
      "alt": "Pictures of The Beatles in Cafe"
    },
    {
      "id": 23834957,
      "width": 2764,
      "height": 2764,
      "url": "https://www.pexels.com/photo/black-and-white-photo-of-the-beatles-statue-in-liverpool-england-23834957/",
      "photographer": "Ivan Dražić",
      "photographer_url": "https://www.pexels.com/@ivan-drazic-20457695",
      "photographer_id": 20457695,
      "avg_color": "#8E8E8E",
      "src": {
        "original": "https://images.pexels.com/photos/23834957/pexels-photo-23834957.jpeg",
        "large2x": "https://images.pexels.com/photos/23834957/pexels-photo-23834957.jpeg?auto=compress&cs=tinysrgb&dpr=2&h=650&w=940",
        "large": "https://images.pexels.com/photos/23834957/pexels-photo-23834957.jpeg?auto=compress&cs=tinysrgb&h=650&w=940",
        "medium": "https://images.pexels.com/photos/23834957/pexels-photo-23834957.jpeg?auto=compress&cs=tinysrgb&h=350",
        "small": "https://images.pexels.com/photos/23834957/pexels-photo-23834957.jpeg?auto=compress&cs=tinysrgb&h=130",
        "portrait": "https://images.pexels.com/photos/23834957/pexels-photo-23834957.jpeg?auto=compress&cs=tinysrgb&fit=crop&h=1200&w=800",
        "landscape": "https://images.pexels.com/photos/23834957/pexels-photo-23834957.jpeg?auto=compress&cs=tinysrgb&fit=crop&h=627&w=1200",
        "tiny": "https://images.pexels.com/photos/23834957/pexels-photo-23834957.jpeg?auto=compress&cs=tinysrgb&dpr=1&fit=crop&h=200&w=280"
      },
      "liked": false,
      "alt": "Black and White Photo of the Beatles Statue in Liverpool, England "
    },
    {
      "id": 6131932,
      "width": 5184,
      "height": 3456,
      "url": "https://www.pexels.com/photo/woman-in-black-framed-eyeglasses-holding-red-and-white-labeled-box-6131932/",
      "photographer": "Mick Haupt",
      "photographer_url": "https://www.pexels.com/@mickhaupt",
      "photographer_id": 1525940,
      "avg_color": "#62574B",
      "src": {
        "original": "https://images.pexels.com/photos/6131932/pexels-photo-6131932.jpeg",
        "large2x": "https://images.pexels.com/photos/6131932/pexels-photo-6131932.jpeg?auto=compress&cs=tinysrgb&dpr=2&h=650&w=940",
        "large": "https://images.pexels.com/photos/6131932/pexels-photo-6131932.jpeg?auto=compress&cs=tinysrgb&h=650&w=940",
        "medium": "https://images.pexels.com/photos/6131932/pexels-photo-6131932.jpeg?auto=compress&cs=tinysrgb&h=350",
        "small": "https://images.pexels.com/photos/6131932/pexels-photo-6131932.jpeg?auto=compress&cs=tinysrgb&h=130",
        "portrait": "https://images.pexels.com/photos/6131932/pexels-photo-6131932.jpeg?auto=compress&cs=tinysrgb&fit=crop&h=1200&w=800",
        "landscape": "https://images.pexels.com/photos/6131932/pexels-photo-6131932.jpeg?auto=compress&cs=tinysrgb&fit=crop&h=627&w=1200",
        "tiny": "https://images.pexels.com/photos/6131932/pexels-photo-6131932.jpeg?auto=compress&cs=tinysrgb&dpr=1&fit=crop&h=200&w=280"
      },
      "liked": false,
      "alt": "Woman in Black Framed Eyeglasses Holding Red and White Labeled Box"
    },
    {
      "id": 13516614,
      "width": 6000,
      "height": 3376,
      "url": "https://www.pexels.com/photo/monument-on-a-tenement-in-liverpool-13516614/",
      "photographer": "Mike Bird",
      "photographer_url": "https://www.pexels.com/@mikebirdy",
      "photographer_id": 20649,
      "avg_color": "#6F6F65",
      "src": {
        "original": "https://images.pexels.com/photos/13516614/pexels-photo-13516614.jpeg",
        "large2x": "https://images.pexels.com/photos/13516614/pexels-photo-13516614.jpeg?auto=compress&cs=tinysrgb&dpr=2&h=650&w=940",
        "large": "https://images.pexels.com/photos/13516614/pexels-photo-13516614.jpeg?auto=compress&cs=tinysrgb&h=650&w=940",
        "medium": "https://images.pexels.com/photos/13516614/pexels-photo-13516614.jpeg?auto=compress&cs=tinysrgb&h=350",
        "small": "https://images.pexels.com/photos/13516614/pexels-photo-13516614.jpeg?auto=compress&cs=tinysrgb&h=130",
        "portrait": "https://images.pexels.com/photos/13516614/pexels-photo-13516614.jpeg?auto=compress&cs=tinysrgb&fit=crop&h=1200&w=800",
        "landscape": "https://images.pexels.com/photos/13516614/pexels-photo-13516614.jpeg?auto=compress&cs=tinysrgb&fit=crop&h=627&w=1200",
        "tiny": "https://images.pexels.com/photos/13516614/pexels-photo-13516614.jpeg?auto=compress&cs=tinysrgb&dpr=1&fit=crop&h=200&w=280"
      },
      "liked": false,
      "alt": "Monument on a Tenement in Liverpool "
    },
    {
      "id": 5205763,
      "width": 6443,
      "height": 4295,
      "url": "https://www.pexels.com/photo/traditional-domed-meditation-cave-against-misty-sky-in-mountainous-valley-5205763/",
      "photographer": "Julia Volk",
      "photographer_url": "https://www.pexels.com/@julia-volk",
      "photographer_id": 3398578,
      "avg_color": "#6C7778",
      "src": {
        "original": "https://images.pexels.com/photos/5205763/pexels-photo-5205763.jpeg",
        "large2x": "https://images.pexels.com/photos/5205763/pexels-photo-5205763.jpeg?auto=compress&cs=tinysrgb&dpr=2&h=650&w=940",
        "large": "https://images.pexels.com/photos/5205763/pexels-photo-5205763.jpeg?auto=compress&cs=tinysrgb&h=650&w=940",
        "medium": "https://images.pexels.com/photos/5205763/pexels-photo-5205763.jpeg?auto=compress&cs=tinysrgb&h=350",
        "small": "https://images.pexels.com/photos/5205763/pexels-photo-5205763.jpeg?auto=compress&cs=tinysrgb&h=130",
        "portrait": "https://images.pexels.com/photos/5205763/pexels-photo-5205763.jpeg?auto=compress&cs=tinysrgb&fit=crop&h=1200&w=800",
        "landscape": "https://images.pexels.com/photos/5205763/pexels-photo-5205763.jpeg?auto=compress&cs=tinysrgb&fit=crop&h=627&w=1200",
        "tiny": "https://images.pexels.com/photos/5205763/pexels-photo-5205763.jpeg?auto=compress&cs=tinysrgb&dpr=1&fit=crop&h=200&w=280"
      },
      "liked": false,
      "alt": "Traditional domed meditation cave against misty sky in mountainous valley"
    },
    {
      "id": 5205743,
      "width": 6604,
      "height": 4403,
      "url": "https://www.pexels.com/photo/old-stone-buddhist-meditation-house-in-green-garden-5205743/",
      "photographer": "Julia Volk",
      "photographer_url": "https://www.pexels.com/@julia-volk",
      "photographer_id": 3398578,
      "avg_color": "#495242",
      "src": {
        "original": "https://images.pexels.com/photos/5205743/pexels-photo-5205743.jpeg",
        "large2x": "https://images.pexels.com/photos/5205743/pexels-photo-5205743.jpeg?auto=compress&cs=tinysrgb&dpr=2&h=650&w=940",
        "large": "https://images.pexels.com/photos/5205743/pexels-photo-5205743.jpeg?auto=compress&cs=tinysrgb&h=650&w=940",
        "medium": "https://images.pexels.com/photos/5205743/pexels-photo-5205743.jpeg?auto=compress&cs=tinysrgb&h=350",
        "small": "https://images.pexels.com/photos/5205743/pexels-photo-5205743.jpeg?auto=compress&cs=tinysrgb&h=130",
        "portrait": "https://images.pexels.com/photos/5205743/pexels-photo-5205743.jpeg?auto=compress&cs=tinysrgb&fit=crop&h=1200&w=800",
        "landscape": "https://images.pexels.com/photos/5205743/pexels-photo-5205743.jpeg?auto=compress&cs=tinysrgb&fit=crop&h=627&w=1200",
        "tiny": "https://images.pexels.com/photos/5205743/pexels-photo-5205743.jpeg?auto=compress&cs=tinysrgb&dpr=1&fit=crop&h=200&w=280"
      },
      "liked": false,
      "alt": "Old stone Buddhist meditation house in green garden"
    },
    {
      "id": 5205708,
      "width": 6756,
      "height": 4504,
      "url": "https://www.pexels.com/photo/old-stone-buddhist-meditation-caves-in-tropical-forest-5205708/",
      "photographer": "Julia Volk",
      "photographer_url": "https://www.pexels.com/@julia-volk",
      "photographer_id": 3398578,
      "avg_color": "#5C6358",
      "src": {
        "original": "https://images.pexels.com/photos/5205708/pexels-photo-5205708.jpeg",
        "large2x": "https://images.pexels.com/photos/5205708/pexels-photo-5205708.jpeg?auto=compress&cs=tinysrgb&dpr=2&h=650&w=940",
        "large": "https://images.pexels.com/photos/5205708/pexels-photo-5205708.jpeg?auto=compress&cs=tinysrgb&h=650&w=940",
        "medium": "https://images.pexels.com/photos/5205708/pexels-photo-5205708.jpeg?auto=compress&cs=tinysrgb&h=350",
        "small": "https://images.pexels.com/photos/5205708/pexels-photo-5205708.jpeg?auto=compress&cs=tinysrgb&h=130",
        "portrait": "https://images.pexels.com/photos/5205708/pexels-photo-5205708.jpeg?auto=compress&cs=tinysrgb&fit=crop&h=1200&w=800",
        "landscape": "https://images.pexels.com/photos/5205708/pexels-photo-5205708.jpeg?auto=compress&cs=tinysrgb&fit=crop&h=627&w=1200",
        "tiny": "https://images.pexels.com/photos/5205708/pexels-photo-5205708.jpeg?auto=compress&cs=tinysrgb&dpr=1&fit=crop&h=200&w=280"
      },
      "liked": false,
      "alt": "Exterior of aged stone meditation caves located on territory of Beatles Ashram in lush green tropical garden in India"
    },
    {
      "id": 5205768,
      "width": 6696,
      "height": 4464,
      "url": "https://www.pexels.com/photo/rooftop-meditation-dome-surrounded-by-lush-green-trees-in-mountains-5205768/",
      "photographer": "Julia Volk",
      "photographer_url": "https://www.pexels.com/@julia-volk",
      "photographer_id": 3398578,
      "avg_color": "#495650",
      "src": {
        "original": "https://images.pexels.com/photos/5205768/pexels-photo-5205768.jpeg",
        "large2x": "https://images.pexels.com/photos/5205768/pexels-photo-5205768.jpeg?auto=compress&cs=tinysrgb&dpr=2&h=650&w=940",
        "large": "https://images.pexels.com/photos/5205768/pexels-photo-5205768.jpeg?auto=compress&cs=tinysrgb&h=650&w=940",
        "medium": "https://images.pexels.com/photos/5205768/pexels-photo-5205768.jpeg?auto=compress&cs=tinysrgb&h=350",
        "small": "https://images.pexels.com/photos/5205768/pexels-photo-5205768.jpeg?auto=compress&cs=tinysrgb&h=130",
        "portrait": "https://images.pexels.com/photos/5205768/pexels-photo-5205768.jpeg?auto=compress&cs=tinysrgb&fit=crop&h=1200&w=800",
        "landscape": "https://images.pexels.com/photos/5205768/pexels-photo-5205768.jpeg?auto=compress&cs=tinysrgb&fit=crop&h=627&w=1200",
        "tiny": "https://images.pexels.com/photos/5205768/pexels-photo-5205768.jpeg?auto=compress&cs=tinysrgb&dpr=1&fit=crop&h=200&w=280"
      },
      "liked": false,
      "alt": "From above small domed caves with graffiti on Buddhist meditation house rooftop located in Beatles Ashram in lush green rainforest against cloudy sky in India"
    },
    {
      "id": 5688604,
      "width": 3456,
      "height": 5184,
      "url": "https://www.pexels.com/photo/brunette-in-pink-jacket-leaning-against-blue-vintage-car-5688604/",
      "photographer": "Hesham Ahmed",
      "photographer_url": "https://www.pexels.com/@hesham-ahmed-1859229",
      "photographer_id": 1859229,
      "avg_color": "#91968D",
      "src": {
        "original": "https://images.pexels.com/photos/5688604/pexels-photo-5688604.jpeg",
        "large2x": "https://images.pexels.com/photos/5688604/pexels-photo-5688604.jpeg?auto=compress&cs=tinysrgb&dpr=2&h=650&w=940",
        "large": "https://images.pexels.com/photos/5688604/pexels-photo-5688604.jpeg?auto=compress&cs=tinysrgb&h=650&w=940",
        "medium": "https://images.pexels.com/photos/5688604/pexels-photo-5688604.jpeg?auto=compress&cs=tinysrgb&h=350",
        "small": "https://images.pexels.com/photos/5688604/pexels-photo-5688604.jpeg?auto=compress&cs=tinysrgb&h=130",
        "portrait": "https://images.pexels.com/photos/5688604/pexels-photo-5688604.jpeg?auto=compress&cs=tinysrgb&fit=crop&h=1200&w=800",
        "landscape": "https://images.pexels.com/photos/5688604/pexels-photo-5688604.jpeg?auto=compress&cs=tinysrgb&fit=crop&h=627&w=1200",
        "tiny": "https://images.pexels.com/photos/5688604/pexels-photo-5688604.jpeg?auto=compress&cs=tinysrgb&dpr=1&fit=crop&h=200&w=280"
      },
      "liked": false,
      "alt": "Brunette in Pink Jacket Leaning against Blue Vintage Car"
    },
    {
      "id": 21578295,
      "width": 6000,
      "height": 4000,
      "url": "https://www.pexels.com/photo/the-beatles-statue-in-liverpool-21578295/",
      "photographer": "JustPhotof Photo & Video",
      "photographer_url": "https://www.pexels.com/@justphotof",
      "photographer_id": 3648652,
      "avg_color": "#8A857F",
      "src": {
        "original": "https://images.pexels.com/photos/21578295/pexels-photo-21578295.jpeg",
        "large2x": "https://images.pexels.com/photos/21578295/pexels-photo-21578295.jpeg?auto=compress&cs=tinysrgb&dpr=2&h=650&w=940",
        "large": "https://images.pexels.com/photos/21578295/pexels-photo-21578295.jpeg?auto=compress&cs=tinysrgb&h=650&w=940",
        "medium": "https://images.pexels.com/photos/21578295/pexels-photo-21578295.jpeg?auto=compress&cs=tinysrgb&h=350",
        "small": "https://images.pexels.com/photos/21578295/pexels-photo-21578295.jpeg?auto=compress&cs=tinysrgb&h=130",
        "portrait": "https://images.pexels.com/photos/21578295/pexels-photo-21578295.jpeg?auto=compress&cs=tinysrgb&fit=crop&h=1200&w=800",
        "landscape": "https://images.pexels.com/photos/21578295/pexels-photo-21578295.jpeg?auto=compress&cs=tinysrgb&fit=crop&h=627&w=1200",
        "tiny": "https://images.pexels.com/photos/21578295/pexels-photo-21578295.jpeg?auto=compress&cs=tinysrgb&dpr=1&fit=crop&h=200&w=280"
      },
      "liked": false,
      "alt": "The Beatles Statue in Liverpool"
    }
  ],
  "total_results": 16,
  "next_page": "https://api.pexels.com/v1/search/?page=2&per_page=15&query=The+Beatles"
}